
[
  {
    "name":"El_Recolector_de_Monedas",
    "subtitle":"Curso: La programación y su didáctica 2",
    "description":"<i>Fundación Sadosky.</i><br><b>El recolector de Monedas.</b><br><a href='https://docs.google.com/document/d/e/2PACX-1vRfptNcIznN1vnHSVUUeSnSk3AlTDlrdWjb-X0r9EjGEKCvCngPNQh1mn8lIndaKx-WlK8Ic4JTryce/pub' target='_blank'>Consignas de trabajo.</a>",
    "thumbnail":"../LamparitaProgram.AR.png",
    "screenshot":"El_Recolector_de_Monedas.png",
    "zip":"El_Recolector_de_Monedas.aia"
  },

  {
    "name":"El_Equilibrio",
    "subtitle":"La programación y su didáctica 2",
    "description":"<i>Fundación Sadosky.</i><br><b>El Equilibrio.</b><br><a href='https://docs.google.com/document/d/e/2PACX-1vQ5xsIgfRri2_a2Wwg98zrVpCkzF96Qt413sxpUa_9dr2UE-XFl9d-KTxsPqobpY9PlPANh2BOwJu6E/pub' target='_blank'>Consignas de trabajo.</a>",
    "thumbnail":"../LamparitaProgram.AR.png",
    "screenshot":"El_Equilibrio.png",
    "zip":"El_Equilibrio.aia"
  },

  {
    "name":"BowLoco",
    "subtitle":"La programación y su didáctica 2",
    "description":"<i>Fundación Sadosky.</i><br><b>BowLoco.</b><br><a href='https://docs.google.com/document/d/e/2PACX-1vQH1MqnCP0JlYh18hk47iUvFuUEsHCsSD0Iftp4KSUdV48m33AWrouenLb_QRn-5FhxsfzArKUDgAfm/pub' target='_blank'>Consignas de trabajo.</a>",
    "thumbnail":"../LamparitaProgram.AR.png",
    "screenshot":"BowLoco.png",
    "zip":"BowLoco.aia"
  },
  {
    "name":"Quien_Hace_Mas_Clicks",
    "subtitle":"La programación y su didáctica 2",
    "description":"<i>Fundación Sadosky.</i><br><b>¿Quién Hace + Clicks?</b><br><a href='https://docs.google.com/document/d/e/2PACX-1vSyf16MYGnBBpgQPWEo9nNPv3-z_GbFWmm4mNFvbJAy66vc62qDDoVaJpb6tHDxVZZR4tm3bdwkpXo9/pub' target='_blank'>Consignas de trabajo.</a>",
    "thumbnail":"../LamparitaProgram.AR.png",
    "screenshot":"Quien_Hace_Mas_Clicks.png",
    "zip":"Quien_HAce_Mas_Clicks.aia"
  },
]

